{
  "discovery_rates": [

    {
      "id":    "Undiscoverable",
      "rate":  0
    },

    {
      "id":   "Discoverable",
      "rate": {
        "min": 0.05,
        "max": 7
      }
    }

  ]
}

