{
  "project_types": [

    {
      "id":              "From P1",
      "lifecycle":       "From Phase 1",
      "group":           "Proj",
      "first_owner":     "Smaller",
      "discovery_rate":  "Undiscoverable",
      "spawn":           14
    },

    {
      "id":              "From P2",
      "lifecycle":       "From Phase 2",
      "group":           "Proj",
      "first_owner":     "Smaller",
      "discovery_rate":  "Undiscoverable",
      "spawn":           13
    },

    {
      "id":              "From P3",
      "lifecycle":       "From Phase 3",
      "group":           "Proj",
      "first_owner":     "Smaller",
      "discovery_rate":  "Undiscoverable",
      "spawn":           10
    },

    {
      "id":              "From App",
      "lifecycle":       "From Approval",
      "group":           "Proj",
      "first_owner":     "Smaller",
      "discovery_rate":  "Undiscoverable",
      "spawn":           2
    }

  ]
}
