{
  "grants": [

    {
      "id":               "Grant PC 100%",
      "fraction":         1,
      "size":             100,
      "cycle":            12,
      "target_stages":    [ "PreClinical" ],
      "target_projects":  [ "A", "B" ]
    },
    {
      "id":               "Grant PC 50%",
      "fraction":         0.5,
      "size":             100,
      "cycle":            12,
      "target_stages":    [ "PreClinical" ],
      "target_projects":  [ "A", "B" ]
    },


    {
      "id":               "Grant P1 80%",
      "fraction":         0.8,
      "size":             66,
      "cycle":            12,
      "target_stages":    [ "Phase1" ],
      "target_projects":  [ "A", "B" ]
    },
    {
      "id":               "Grant P1 50%",
      "fraction":         0.5,
      "size":             66,
      "cycle":            12,
      "target_stages":    [ "Phase1" ],
      "target_projects":  [ "A", "B" ]
    },
    {
      "id":               "Grant P1 30%",
      "fraction":         0.3,
      "size":             66,
      "cycle":            12,
      "target_stages":    [ "Phase1" ],
      "target_projects":  [ "A", "B" ]
    },


    {
      "id":               "Grant P2 70%",
      "fraction":         0.7,
      "size":             66,
      "cycle":            12,
      "target_stages":    [ "Phase2" ],
      "target_projects":  [ "A", "B" ]
    },
    {
      "id":               "Grant P2 50%",
      "fraction":         0.5,
      "size":             66,
      "cycle":            12,
      "target_stages":    [ "Phase2" ],
      "target_projects":  [ "A", "B" ]
    },
    {
      "id":               "Grant P2 30%",
      "fraction":         0.3,
      "size":             66,
      "cycle":            12,
      "target_stages":    [ "Phase2" ],
      "target_projects":  [ "A", "B" ]
    }

  ]
}
