{

  "stage_groups": [
    "PreClinical",
    "Phase1",
    "Phase2",
    "Phase3",
    "Approval",
    "MarketEntry",
    "MarketUptake",
    "MarketPeak",
    "Intervention"
  ],


  "project_groups": [
    "A",
    "B",
    "C"
  ]

}
