{
  "grant_types": [

    {
      "size":             999999,
      "cycle":            12,
      "fraction":         {
        "from": 0,
        "to":   1,
        "by":   0.1
      },

      "pools": [
        {
          "id":               "Grant Pool",
          "target_stages":    [
            "PreClinical",
            "Phase1",
            "Phase2"
          ],
          "target_projects":  [ "Proj" ]
        }
      ]
    }

  ]
}
