{
  "grant_types": [

    {
      "size":             [0, 200, 300],
      "cycle":            12,
      "fraction":         0,

      "pools": [
        {
          "id":               "Grant PC",
          "fraction":         [0.5, 1],
          "target_stages":    [ "PreClinical" ],
          "target_projects":  [ "Proj" ]
        },

        {
          "id":               "Grant P1",
          "fraction":         [0.3, 0.5, 0.8],
          "target_stages":    [ "Phase1" ],
          "target_projects":  [ "Proj" ]
        },

        {
          "id":               "Grant P2",
          "fraction":         [0.3, 0.5, 0.7],
          "target_stages":    [ "Phase2" ],
          "target_projects":  [ "Proj" ]
        }
      ]
    }

  ]
}
